{"page":1,"total_results":591,"total_pages":30,"results":[{"vote_count":83,"id":13009,"video":false,"vote_average":4.2,"title":"Zombie Strippers!","popularity":6.295871,"poster_path":"\/wmuidysXkosHFgkxTtghR04M16x.jpg","original_language":"en","original_title":"Zombie Strippers!","genre_ids":[35,27],"backdrop_path":"\/9iz2DaLLvGnJJAPwawVEE1WFWIQ.jpg","adult":false,"overview":"In the not too distant future a secret government re-animation chemo-virus gets released into conservative Sartre, Nebraska and lands in an underground strip club. As the virus begins to spread, turning the strippers into \"Super Zombie Strippers\" the girls struggle with whether or not to conform to the new \"fad\" even if it means there's no turning back.","release_date":"2008-04-18"},{"vote_count":53,"id":26860,"video":false,"vote_average":5.9,"title":"White Zombie","popularity":4.675778,"poster_path":"\/s5DnfWHGeCExlweIFF4JOHKyx3H.jpg","original_language":"en","original_title":"White Zombie","genre_ids":[27],"backdrop_path":"\/lN6psCG1e6lNopFeLKeWFLsbfLK.jpg","adult":false,"overview":"In Haiti, a wealthy landowner convinces a sorcerer to lure the American woman he has fallen for away from her fiance, only to have the madman decide to keep the woman for himself, as a zombie.","release_date":"1932-08-04"},{"vote_count":0,"id":485809,"video":false,"vote_average":0,"title":"Zombie Bite","popularity":3.63746,"poster_path":"\/fdJlgLScCNDdH0LFhqWLFrURh94.jpg","original_language":"en","original_title":"Zombie Bite","genre_ids":[],"backdrop_path":null,"adult":false,"overview":"During a zombie pandemic, security consultant Jack Romero is bitten by a Zombie and has 3 days before he either turns into one or not, depending on his blood type, which he doesn't know. Holding up in his home during a statewide quarantine, he must keep his wife, who is safely away at a military base, unaware of his condition, fend off an occasional zombie, as well as other characters, while the clock ticks away at his fate. Written, produced and directed by King Jeff, this film strays away from the zombie movie cliches and is fresh and original visually as well as its soundtrack and focus on character.","release_date":"2017-11-23"},{"vote_count":16,"id":27843,"video":false,"vote_average":6,"title":"Tokyo Zombie","popularity":2.119513,"poster_path":"\/43Hl4hJYQQi67QhTM28cUxbQqEF.jpg","original_language":"ja","original_title":"東京ゾンビ","genre_ids":[35,27],"backdrop_path":"\/h6mRTTtzd6BME18yXI06yfG3WwR.jpg","adult":false,"overview":"Two Japanese friends accidentally kill their boss and dump his remains in Black Fuji, a mountain\/landfill hybrid. This leads to poor results when the chemicals of the landfill mix with the corpse (and many other corpses) to give rise to a zombie infestation in Tokyo.","release_date":"2005-12-10"},{"vote_count":18,"id":33789,"video":false,"vote_average":5.5,"title":"Wasting Away","popularity":2.657321,"poster_path":"\/hZgkHiGbTs53thAgBSr5GPIksJP.jpg","original_language":"en","original_title":"Wasting Away","genre_ids":[35,27],"backdrop_path":"\/zlNf40bJK6dyui7CUxxXfGnQFt1.jpg","adult":false,"overview":"Brain freeze has never been so bad once you’ve tasted Ale Cream, as four friends inadvertently eat some radioactive ice-cream, turning them into zombies. Only problem is they don’t see themselves as the undead, but as super soldiers.","release_date":"2007-10-16"},{"vote_count":14,"id":25028,"video":false,"vote_average":5.4,"title":"The Dead Next Door","popularity":2.634777,"poster_path":"\/3EGpgveC1gFb2I69F0doAwac89D.jpg","original_language":"en","original_title":"The Dead Next Door","genre_ids":[27,28,53],"backdrop_path":"\/l0S0FWfisDzNsLyOYTy6ZWNTqMJ.jpg","adult":false,"overview":"The government sets up a zombie squad after an epidemic has made the world run rampant with living corpses. The team head off to Ohio to try and find a cure but soon run into a crazy cult of zombie lovers who are set on preserving the walking dead as they believe it's God's will.","release_date":"1989-11-10"},{"vote_count":16,"id":24916,"video":false,"vote_average":6.1,"title":"Bio Zombie","popularity":2.411452,"poster_path":"\/oBjYa5N4VyDIkhKIxmKcnokMX2C.jpg","original_language":"cn","original_title":"Sun faa sau si","genre_ids":[27,35,10769],"backdrop_path":"\/s9csCyvsOeObFyZFABwqB4U9nnE.jpg","adult":false,"overview":"A soft drink tainted with bio-chemicals has the power to turn people into flesh-eating zombies.","release_date":"1998-06-11"},{"vote_count":21,"id":31385,"video":false,"vote_average":3.8,"title":"Zombie Nightmare","popularity":3.0925,"poster_path":"\/hMS4r0jBvs2DnUBYbeqSSzSnK2l.jpg","original_language":"en","original_title":"Zombie Nightmare","genre_ids":[27],"backdrop_path":"\/ukTSSz80anWtTCtOceDRLRDGe44.jpg","adult":false,"overview":"Tony Washington is killed by a gang of rampant trendy teenagers. Molly Mokembe is a voodoo lady who brings him back from the dead to seek revenge on his killers so he can rest in peace.","release_date":"1987-10-13"},{"vote_count":20,"id":219247,"video":false,"vote_average":3.4,"title":"Zombie Night","popularity":3.088318,"poster_path":"\/hdh9wswJdpNvIWhVhgyIoiz4czr.jpg","original_language":"en","original_title":"Zombie Night","genre_ids":[27],"backdrop_path":"\/gSXZ0M06oUW0RaG6ZDTlkCr5Hr0.jpg","adult":false,"overview":"Zombies come out at night and two families must survive until morning.","release_date":"2013-10-08"},{"vote_count":37,"id":206213,"video":false,"vote_average":3.4,"title":"Zombie Hunter","popularity":3.068695,"poster_path":"\/xnvPQ4WHEt8PBVxUyrogXITMR96.jpg","original_language":"en","original_title":"Zombie Hunter","genre_ids":[35,28,878,53],"backdrop_path":"\/tsRe5UTkDRtcpUpS4OHwoPSJjdU.jpg","adult":false,"overview":"Zombie Hunter is set in a post-apocalyptic Zombie wasteland caused by the mysterious street drug \"Natas\". We follow one man who has nothing left other than a beat up Camaro and a trunk full of guns and booze. He runs down Flesh Eaters, hunting for sport and redemption, while also running from his past. After crashing into a small group of survivors, who are running low on resources, he decides to lend a hand. But a surprise attack by the Flesh Eaters forces them on the run and puts the Hunter's skills to the test.","release_date":"2013-07-25"},{"vote_count":33,"id":75735,"video":false,"vote_average":3.7,"title":"Zombie Apocalypse","popularity":2.918416,"poster_path":"\/7Eiotz00M6UGZZCh57fekLQ1xOQ.jpg","original_language":"en","original_title":"Zombie Apocalypse","genre_ids":[28,27,878],"backdrop_path":"\/sN7BO89b2bBG7xvlAaUXYuAx0Ow.jpg","adult":false,"overview":"Months after a zombie plague has wiped out 90 percent of the American population, a small group of survivors fight their way cross-country to a rumored refuge on the island of Catalina.","release_date":"2011-10-29"},{"vote_count":540,"id":273477,"video":false,"vote_average":6.2,"title":"Scouts Guide to the Zombie Apocalypse","popularity":11.698778,"poster_path":"\/3wHxtemithpFQiB7ffa50ZKI6bz.jpg","original_language":"en","original_title":"Scouts Guide to the Zombie Apocalypse","genre_ids":[35,27],"backdrop_path":"\/g9pgzOel4BzrHSSjezByWWTRZBs.jpg","adult":false,"overview":"Three scouts and lifelong friends join forces with one badass cocktail waitress to become the world’s most unlikely team of heroes.  When their peaceful town is ravaged by a zombie invasion, they’ll fight for the badge of a lifetime and put their scouting skills to the test to save mankind from the undead.","release_date":"2015-10-23"},{"vote_count":16,"id":347849,"video":false,"vote_average":4.4,"title":"Zombie Shark","popularity":2.753644,"poster_path":"\/4yvlzGuTw7GWGiiqjhUlAnmju41.jpg","original_language":"en","original_title":"Zombie Shark","genre_ids":[27,878,10770],"backdrop_path":"\/3EULdjn6R9TkhE3pTUBSmgcdWLi.jpg","adult":false,"overview":"A perfect getaway weekend turns into a nightmare for four friends who find themselves fighting for their lives against an experimental shark. In order to survive they must fight sharks, zombies, and shark zombies.","release_date":"2015-07-20"},{"vote_count":13,"id":13946,"video":false,"vote_average":4.7,"title":"The Rage","popularity":2.300605,"poster_path":"\/ztEMdMaRjQGymmj1OndhDhYBLba.jpg","original_language":"en","original_title":"The Rage","genre_ids":[27,878],"backdrop_path":"\/n1v3KKeasXAYtsszKGCchfU0eJp.jpg","adult":false,"overview":"A crazed scientist experimenting with a rage virus on innocent victims in a laboratory in the woods. When his monstrous subjects escape and vultures devour their remains, they became mutations seeking to feed on humans.","release_date":"2007-12-01"},{"vote_count":23,"id":153509,"video":false,"vote_average":3,"title":"Zombie Massacre","popularity":2.628685,"poster_path":"\/8LRsVQQBD7HRL1bET321ZhtorzA.jpg","original_language":"en","original_title":"Zombie Massacre","genre_ids":[28,27],"backdrop_path":"\/wNPGF4UpVDB6Ux7WFZBZOyd2Ebj.jpg","adult":false,"overview":"A bacteriological weapon developed by the US Government to create a super soldier - spreads an epidemic in a quiet little town in the middle of Eastern Europe. All citizens have been turned into infected zombies. The plan is to bring an atomic bomb into the city's nuclear plant to pretend a terrible accident occurred. No one has to know the truth. A team of mercenaries is hired to complete the mission. The battle is on. Hordes of monsters against the team. Who will survive?","release_date":"2013-06-06"},{"vote_count":85,"id":13151,"video":false,"vote_average":7.2,"title":"Scooby-Doo on Zombie Island","popularity":6.012239,"poster_path":"\/j1Pl3ztuweSQ3pReunO3WM7boju.jpg","original_language":"en","original_title":"Scooby-Doo on Zombie Island","genre_ids":[16,35,10751,9648],"backdrop_path":"\/yWLwD1VV5CaftlEEy3iQnGsWFCB.jpg","adult":false,"overview":"Get ready for far-out fun in Scooby-Doo's brand-new, feature-length, animated movie. Scooby-Doo, Shaggy, Velma, Daphne, and Fred reunite to solve the most frightfully funny mystery of their careers. The scream team's headed to a haunted bayou island to investigate the ghost of Moonscar the pirate. But it turns out the swashbuckler's spirit isn't the only creepy character on the island. The sleuths also meet up with cat creatures and zombies... and it looks like for the first time in their lives, these ghouls might actually be real.Just as things start to get really spooky, Scooby and Shaggy save the day with a little help from a surprisingly spooky source. \"Scooby-Doo on Zombie Island\" is the most hilarious Scooby adventure of all time that dishes up equal portions of music, laughs, thrills and chills.","release_date":"1998-09-22"},{"vote_count":10,"id":18116,"video":false,"vote_average":4.9,"title":"American Zombie","popularity":2.400151,"poster_path":"\/8bgfzt0d1B0O4e7qdyEc8l00qts.jpg","original_language":"en","original_title":"American Zombie","genre_ids":[35,99,27],"backdrop_path":"\/8Sgomg7WJ9McEhbfKX3IlNWhoYE.jpg","adult":false,"overview":"Documents the daily lives of a small community of the living deceased who make their home in Los Angeles.","release_date":"2007-01-18"},{"vote_count":3,"id":65871,"video":false,"vote_average":2,"title":"Zombie Undead","popularity":1.578584,"poster_path":"\/9y4SVzS7pA8YhtrgPGMHmScAdFJ.jpg","original_language":"en","original_title":"Zombie Undead","genre_ids":[27],"backdrop_path":"\/rND50zLxeciwc0s6ym4jvzvJUHM.jpg","adult":false,"overview":"A car roars through the darkened country roads. Inside, a distraught Sarah, holding her stricken dad, Mark, is desperately trying to stem the flow of blood. Having been re-directed to an Evacuation facility on the edge of town, Steve, an off-duty Paramedic is in a race against time fully aware that Mark's chances of survival are rapidly slipping away. The scene that greets them on arrival is one of chaos. The floor, awash with blood, is covered with the bodies of the dying and injured, doctors dart back and forth, clearly overwhelmed. A violent convulsion causes Mark to lose consciousness, heart stopped he slumps to the floor. As the adrenalin needle slams into her Fathers heart Sarah stumbles back and her world fades to black. Upon regaining consciousness Sarah is greeted by the uneasy silence of a seemingly deserted building. Bleeding and dazed she stumbles through the darkened corridors unaware of the fate that awaits her...","release_date":"2010-01-15"},{"vote_count":6,"id":408211,"video":false,"vote_average":3.8,"title":"Zombie Spring Breakers","popularity":3.159111,"poster_path":"\/aOenjY13Fpifr7IrCsVhfTnk0Ai.jpg","original_language":"en","original_title":"Zombie Spring Breakers","genre_ids":[28,35,27],"backdrop_path":null,"adult":false,"overview":"Three best friends - Alex, Az and Jim - head to Ibiza for their first lad's holiday. Unfortunately, tagging along is Alex's unimpressed ex-girlfriend Ellie. Arriving on the island, the lads dump Ellie with Alex's sister Liz, and her friend Zara, and head to San Antonio to start their week of sun, sea and debauchery. Soon they end up in a club, run by local gangster Karl, where the attractions aren't all alive - they're zombies! Due to Jim's drunken antics the zombies escape, and soon all hell breaks loose and no one on the party island is safe.","release_date":"2016-08-26"},{"vote_count":54,"id":27130,"video":false,"vote_average":6.7,"title":"I Walked with a Zombie","popularity":5.265733,"poster_path":"\/uoyBR8XNxPQRojujtczfG1qJezY.jpg","original_language":"en","original_title":"I Walked with a Zombie","genre_ids":[18,27],"backdrop_path":"\/gNLoch27EP2w1ezFQQCcqQnZivq.jpg","adult":false,"overview":"A nurse in the Caribbean turns to voodoo in hopes of curing her patient, an unusual woman who's husband she's fallen in love with.","release_date":"1943-04-21"}]}
